^C:\Users\Никита\source\repos\class\class.vcxproj
C:\Users\Никита\source\repos\class\Release\class.ipdb
C:\Users\Никита\source\repos\class\Release\class.iobj
^C:\Users\Никита\source\repos\class\class.vcxproj
C:\Users\Никита\source\repos\class\Release\class.ipdb
C:\Users\Никита\source\repos\class\Release\class.iobj
^C:\Users\Никита\source\repos\class\class.vcxproj
C:\Users\Никита\source\repos\class\Release\class.ipdb
C:\Users\Никита\source\repos\class\Release\class.iobj
^C:\Users\Никита\source\repos\class\class.vcxproj
C:\Users\Никита\source\repos\class\Release\class.ipdb
C:\Users\Никита\source\repos\class\Release\class.iobj
^C:\Users\Никита\source\repos\class\class.vcxproj
C:\Users\Никита\source\repos\class\Release\class.ipdb
C:\Users\Никита\source\repos\class\Release\class.iobj
^C:\Users\Никита\source\repos\class\class.vcxproj
C:\Users\Никита\source\repos\class\Release\class.ipdb
C:\Users\Никита\source\repos\class\Release\class.iobj
^C:\Users\Никита\source\repos\class\class.vcxproj
C:\Users\Никита\source\repos\class\Release\class.ipdb
C:\Users\Никита\source\repos\class\Release\class.iobj
^C:\Users\Никита\source\repos\class\class.vcxproj
C:\Users\Никита\source\repos\class\Release\class.ipdb
C:\Users\Никита\source\repos\class\Release\class.iobj
^C:\Users\Никита\source\repos\class\class.vcxproj
C:\Users\Никита\source\repos\class\Release\class.ipdb
C:\Users\Никита\source\repos\class\Release\class.iobj
^C:\Users\Никита\source\repos\class\class.vcxproj
C:\Users\Никита\source\repos\class\Release\class.ipdb
C:\Users\Никита\source\repos\class\Release\class.iobj
^C:\Users\Никита\source\repos\class\class.vcxproj
C:\Users\Никита\source\repos\class\Release\class.ipdb
C:\Users\Никита\source\repos\class\Release\class.iobj
^C:\Users\Никита\source\repos\class\class.vcxproj
C:\Users\Никита\source\repos\class\Release\class.ipdb
C:\Users\Никита\source\repos\class\Release\class.iobj
^C:\Users\Никита\source\repos\class\class.vcxproj
C:\Users\Никита\source\repos\class\Release\class.ipdb
C:\Users\Никита\source\repos\class\Release\class.iobj
^C:\Users\Никита\source\repos\class\class.vcxproj
C:\Users\Никита\source\repos\class\Release\class.ipdb
C:\Users\Никита\source\repos\class\Release\class.iobj
^C:\Users\Никита\source\repos\class\class.vcxproj
C:\Users\Никита\source\repos\class\Release\class.ipdb
C:\Users\Никита\source\repos\class\Release\class.iobj
^C:\Users\Никита\source\repos\class\class.vcxproj
C:\Users\Никита\source\repos\class\Release\class.ipdb
C:\Users\Никита\source\repos\class\Release\class.iobj
^C:\Users\Никита\source\repos\class\class.vcxproj
C:\Users\Никита\source\repos\class\Release\class.ipdb
C:\Users\Никита\source\repos\class\Release\class.iobj
^C:\Users\Никита\source\repos\class\class.vcxproj
C:\Users\Никита\source\repos\class\Release\class.ipdb
C:\Users\Никита\source\repos\class\Release\class.iobj
